ID,Titel,Locatie,Straat,Nummer,Postcode,Gemeente,Land,Omschrijving,Wikipedia link,Website,Telefoon,E-mail,Prijs,Persoon
,Koffiemachine,De Koffiehoek,Gaston Crommenlaan ,4,9050,Gent,België,Dit is de koffiemachine v2 van Douwe Egberts. Eerst was er een machine van Roode Pelikaan. Maar dat was rommel.,https://nl.wikipedia.org/wiki/Douwe_Egberts,https://www.douwe-egberts.be/,32 2 801 56 10,,5000,Ronny Justaert
,De interne post,achterzijde lockers,Gaston Crommenlaan ,4,9050,Gent,België,Plaats hier je uitgaande interne post. Of misschien ligt er wel een pakje voor jou...,,,,32 2 801 56 10,,
,IoT,Kant Gaston Crommenlaan,,,,,,Dit is het lab van de IoT mannen. Zij doen projecten bij klanten die met IoT te maken hebben. Geinteresseerd? Contacteer Roel de Cuyper,,www.realdolmen.com,,,,Roel De Cuyper
,,Kantoor kant DevOps Factory,Gaston Crommenlaan,4,9050,Gent,België,Dit is het scrumboard van team Tec7. Zij werken voor Van de Velde. Van de Velde maakt lingerie. Hun slogan is shaping the bodies and minds of women.,https://nl.wikipedia.org/wiki/Van_de_Velde_(bedrijf),www.vandevelde.eu,,,,Herman Van de Velde
,Scrumboard team Tank,Kantoor kant DevOps Factory,Gaston Crommenlaan,4,9050,Gent,België,Dit is het scrumboard van team Tank 2.0. Zij werken voor de federale politie. De federale politie pakt boeven en regelt het verkeer.,,,,,,Mark De Mesmaeker
